Q-Step presentation
…
.right-column[

```
## # A tibble: 32 x 6
##    gender Indigenous_status child_welfare youth_justice convicted     n
##    <chr>  <chr>             <chr>         <chr>             <dbl> <int>
##  1 male   IS                CW contact    YJ contact            1     5
##  2 female IS                CW contact    YJ contact            1    14
##  3 male   IS                CW contact    YJ contact            0    28
##  4 female IS                CW contact    YJ contact            0    34
##  5 male   IS                no CW contact YJ contact            1    40
##  6 female IS                CW contact    no YJ contact         1    42
##  7 male   IS                CW contact    no YJ contact         1    48
##  8 female IS                no CW contact YJ contact            1    49
##  9 male   non-IS            CW contact    YJ contact            1   170
## 10 female IS                CW contact    no YJ contact         0   171
## # ... with 22 more rows
```
…
